digraph aef{
  /* HORIZONTAL */ rankdir=LR;
  /* NAME */ node [shape=plaintext, fontname=comic, fontsize=18, fontcolor=blue];
  A3;
  node [shape=circle, fontname=Georgia, fontsize=14, fontcolor=black];
  node [peripheries=2];
  "(3,3')"; "(1,1')";
  node [peripheries=1];
  A3 -> "(1,1')" [color=blue];
  "(1,1')" -> "(1,1')" [label="a"];
  "(1,1')" -> "(2,2')" [label="b"];
  "(2,2')" -> "(3,3')" [label=""];
  "(1,1')" -> "(3,3')" [label=""];
  }